lab3B_jelia
…
# 2.
surveys %>%
    filter(!is.na(hindfoot_length)) %>%
    group_by(species_id) %>%
    summarize(
        mean_hindfoot_length = mean(hindfoot_length),
        min_hindfoot_length = min(hindfoot_length),
        max_hindfoot_length = max(hindfoot_length),
        n = n()
    )

## `summarise()` ungrouping output (override with `.groups` argument)

## # A tibble: 25 x 5
##    species_id mean_hindfoot_length min_hindfoot_length max_hindfoot_length     n
##    <fct>                     <dbl>               <int>               <int> <int>
##  1 AH                         33                    31                  35     2
##  2 BA                         13                     6                  16    45
##  3 DM                         36.0                  16                  50  9972
##  4 DO                         35.6                  26                  64  2887
##  5 DS                         49.9                  39                  58  2132
##  6 NL                         32.3                  21                  70  1074
##  7 OL                         20.5                  12                  39   920
##  8 OT                         20.3                  13                  50  2139
##  9 OX                         19.1                  13                  21     8
## 10 PB                         26.1                   2                  47  2864
## # ... with 15 more rows

# 3.
surveys %>%
    filter(!is.na(weight)) %>%
    group_by(year) %>%
    filter(weight == max(weight)) %>%
    select(year, genus, species, weight) %>%
    arrange(year)

## # A tibble: 27 x 4
## # Groups:   year [26]
##     year genus     species     weight
##    <int> <fct>     <fct>        <int>
##  1  1977 Dipodomys spectabilis    149
##  2  1978 Neotoma   albigula       232
##  3  1978 Neotoma   albigula       232
##  4  1979 Neotoma   albigula       274
##  5  1980 Neotoma   albigula       243
##  6  1981 Neotoma   albigula       264
##  7  1982 Neotoma   albigula       252
##  8  1983 Neotoma   albigula       256
##  9  1984 Neotoma   albigula       259
## 10  1985 Neotoma   albigula       225
## # ... with 17 more rows
…
# 2.
surveys_spread_genera %>%
  gather("year", "n_genera", -plot_id)

## # A tibble: 624 x 3
## # Groups:   plot_id [24]
##    plot_id year  n_genera
##      <int> <chr>    <int>
##  1       1 1977         2
##  2       2 1977         6
##  3       3 1977         5
##  4       4 1977         4
##  5       5 1977         4
##  6       6 1977         3
##  7       7 1977         3
##  8       8 1977         2
##  9       9 1977         3
## 10      10 1977         1
## # ... with 614 more rows

# 3.
surveys_long <- surveys %>%
  gather("measurement", "value", hindfoot_length, weight)
# 4.
surveys_long %>%
  group_by(year, measurement, plot_type) %>%
  summarize(mean_value = mean(value, na.rm=TRUE)) %>%
  spread(measurement, mean_value)

## `summarise()` regrouping output by 'year', 'measurement' (override with `.groups` argument)

## # A tibble: 130 x 4
## # Groups:   year [26]
##     year plot_type                 hindfoot_length weight
##    <int> <fct>                               <dbl>  <dbl>
##  1  1977 Control                              36.1   50.4
##  2  1977 Long-term Krat Exclosure             33.7   34.8
##  3  1977 Rodent Exclosure                     39.1   48.2
##  4  1977 Short-term Krat Exclosure            35.8   41.3
##  5  1977 Spectab exclosure                    37.2   47.1
##  6  1978 Control                              38.1   70.8
##  7  1978 Long-term Krat Exclosure             22.6   35.9
##  8  1978 Rodent Exclosure                     37.8   67.3
##  9  1978 Short-term Krat Exclosure            36.9   63.8
## 10  1978 Spectab exclosure                    42.3   80.1
## # ... with 120 more rows
…
